[
  {
    "source": "",
    "target": "context.sourceSystem"
  },
  {
    "source": "",
    "target": "context.jobType"
  },
  {
    "source": "",
    "target": "context.jobNumber"
  },
  {
    "source": "",
    "target": "context.accountNumber"
  },
  {
    "source": "property.policyType",
    "target": "context.policyType",
    "type": "ENUM"
  },
  {
    "source": "",
    "target": "context.partnerNumber"
  },
  {
    "source": "",
    "target": "context.productLine"
  },
  {
    "source": "",
    "target": "context.jobSubType"
  },
  {
    "source": "",
    "target": "context.isRefresh"
  }
]