[
  {
    "source": "",
    "target": "dataIdentifier.sourceSystem"
  },
  {
    "source": "property.policyType",
    "target": "dataIdentifier.policyType",
    "type": "ENUM"
  },
  {
    "source": "",
    "target": "dataIdentifier.uwcompany"
  },
  {
    "source": "",
    "target": "dataIdentifier.partnerID"
  },
  {
    "source": "",
    "target": "dataIdentifier.productLine"
  },
  {
    "source": "partner.amfAccountNumber",
    "target": "dataIdentifier.partnerAccountNumber"
  }
]