SAPI,OE_DTO
address.[@vehicle.ref].county,policy.lobDataDTO.coverables.vehicles.[].garagingLocation.county
address.[@vehicle.ref].city,policy.lobDataDTO.coverables.vehicles.[].garagingLocation.city
address.[@vehicle.ref].state,policy.lobDataDTO.coverables.vehicles.[].garagingLocation.state
address.[@vehicle.ref].zipcode,policy.lobDataDTO.coverables.vehicles.[].garagingLocation.postalCode
address.[@vehicle.ref].line1,policy.lobDataDTO.coverables.vehicles.[].garagingLocation.addressLine1
address.[@vehicle.ref].line2,policy.lobDataDTO.coverables.vehicles.[].garagingLocation.addressLine2
