SAPI,OE_DTO
person.[@secondaryInsured.person.ref].phoneType,policy.lobDataDTO.secondaryNamedInsured.person.phoneType
address.[@secondaryInsured.mailing.address.ref].line2,policy.lobDataDTO.secondaryNamedInsured.person.contactAddresses.[0].addressLine2
person.[@secondaryInsured.person.ref].dob,policy.lobDataDTO.secondaryNamedInsured.person.dateOfBirth.isodate_Ext
person.[@secondaryInsured.person.ref].dob,policy.lobDataDTO.secondaryNamedInsured.person.dateOfBirth.day
person.[@secondaryInsured.person.ref].dob,policy.lobDataDTO.secondaryNamedInsured.person.dateOfBirth.month
person.[@secondaryInsured.person.ref].dob,policy.lobDataDTO.secondaryNamedInsured.person.dateOfBirth.year
address.[@secondaryInsured.physicalRisk.address.ref].state,policy.lobDataDTO.secondaryNamedInsured.person.primaryAddress.state
address.[@secondaryInsured.physicalRisk.address.ref].zipcode,policy.lobDataDTO.secondaryNamedInsured.person.primaryAddress.postalCode
person.[@secondaryInsured.person.ref].firstName,policy.lobDataDTO.secondaryNamedInsured.person.firstName
address.[@secondaryInsured.street.address.ref].state,policy.lobDataDTO.secondaryNamedInsured.person.primaryAddress.state
person.[@secondaryInsured.person.ref].suffix,policy.lobDataDTO.secondaryNamedInsured.person.suffix
address.[@secondaryInsured.mailing.address.ref].state,policy.lobDataDTO.secondaryNamedInsured.person.contactAddresses.[0].state
address.[@secondaryInsured.physicalRisk.address.ref].city,policy.lobDataDTO.secondaryNamedInsured.person.primaryAddress.city
address.[@secondaryInsured.street.address.ref].zipcode,policy.lobDataDTO.secondaryNamedInsured.person.primaryAddress.postalCode
address.[@secondaryInsured.mailing.address.ref].line1,policy.lobDataDTO.secondaryNamedInsured.person.contactAddresses.[0].addressLine1
address.[@secondaryInsured.physicalRisk.address.ref].county,policy.lobDataDTO.secondaryNamedInsured.person.primaryAddress.county
address.[@secondaryInsured.street.address.ref].line2,policy.lobDataDTO.secondaryNamedInsured.person.primaryAddress.addressLine2
person.[@secondaryInsured.person.ref].relationshipToApplicant,policy.lobDataDTO.secondaryNamedInsured.relationshipToNI
address.[@secondaryInsured.street.address.ref].county,policy.lobDataDTO.secondaryNamedInsured.person.primaryAddress.county
person.[@secondaryInsured.person.ref].lastName,policy.lobDataDTO.secondaryNamedInsured.person.lastName
address.[@secondaryInsured.street.address.ref].line1,policy.lobDataDTO.secondaryNamedInsured.person.primaryAddress.addressLine1
address.[@secondaryInsured.mailing.address.ref].city,policy.lobDataDTO.secondaryNamedInsured.person.contactAddresses.[0].city
address.[@secondaryInsured.street.address.ref].city,policy.lobDataDTO.secondaryNamedInsured.person.primaryAddress.city
person.[@secondaryInsured.person.ref].phone,policy.lobDataDTO.secondaryNamedInsured.person.homeNumber
driver.{ref}.secondaryNamedInsured,policy.lobDataDTO.secondaryNamedInsured.integrationId
driver.{ref}.secondaryNamedInsured,policy.lobDataDTO.secondaryNamedInsured.relationshipToNI
person.[@secondaryInsured.person.ref].gender,policy.lobDataDTO.secondaryNamedInsured.person.gender
address.[@secondaryInsured.physicalRisk.address.ref].line2,policy.lobDataDTO.secondaryNamedInsured.person.primaryAddress.addressLine2
address.[@secondaryInsured.physicalRisk.address.ref].line1,policy.lobDataDTO.secondaryNamedInsured.person.primaryAddress.addressLine1
address.[@secondaryInsured.mailing.address.ref].zipcode,policy.lobDataDTO.secondaryNamedInsured.person.contactAddresses.[0].postalCode
person.[@secondaryInsured.person.ref].email,policy.lobDataDTO.secondaryNamedInsured.person.emailAddress1
person.[@secondaryInsured.person.ref].middleName,policy.lobDataDTO.secondaryNamedInsured.person.middleName
address.[@secondaryInsured.mailing.address.ref].county,policy.lobDataDTO.secondaryNamedInsured.person.contactAddresses.[0].county
