SAPI,OE_DTO
property.requestedCoverages.increasedCoverageCSpecialLiabilityLimitSilverware,policy.lobDataDTO.offerings.[0].coverages.schedules[patternName='EH_NamedPerilIncCovCItem'].scheduleItems[@deserialization-class='edge.capabilities.policycommon.coverage.schedule.dto.patterns.SimpleScheduledItemDTO' && itemData.EH_NamedPerilIncCovC_ScheduleType.typeCodeValue='silverwaregoldwarepewterware'].itemData.EH_NamedPerilIncCovC_ItemLimit.bigDecimal
property.requestedCoverages.increasedCoverageCSpecialLiabilityLimitSilverware,policy.lobDataDTO.offerings.[0].coverages.schedules[patternName='EH_NamedPerilIncCovCItem'].scheduleItems[@deserialization-class='edge.capabilities.policycommon.coverage.schedule.dto.patterns.SimpleScheduledItemDTO' && itemData.EH_NamedPerilIncCovC_ScheduleType.typeCodeValue='silverwaregoldwarepewterware'].itemNumber
property.requestedCoverages.increasedCoverageCSpecialLiabilityLimitSilverware,policy.lobDataDTO.offerings.[0].coverages.coverages[codeIdentifier='EH_NamedPerilIncCovC'].selected
property.requestedCoverages.electronicApparatusInAndOutOfVehicle,policy.lobDataDTO.offerings.[0].coverages.schedules[patternName='EH_NamedPerilIncCovCItem'].scheduleItems[@deserialization-class='edge.capabilities.policycommon.coverage.schedule.dto.patterns.SimpleScheduledItemDTO' && itemData.EH_NamedPerilIncCovC_ScheduleType.typeCodeValue='portableelectronicequipmentinvehicle'].itemData.EH_NamedPerilIncCovC_ItemLimit.bigDecimal
property.requestedCoverages.electronicApparatusInAndOutOfVehicle,policy.lobDataDTO.offerings.[0].coverages.schedules[patternName='EH_NamedPerilIncCovCItem'].scheduleItems[@deserialization-class='edge.capabilities.policycommon.coverage.schedule.dto.patterns.SimpleScheduledItemDTO' && itemData.EH_NamedPerilIncCovC_ScheduleType.typeCodeValue='portableelectronicequipmentinvehicle'].itemNumber
property.requestedCoverages.electronicApparatusInAndOutOfVehicle,policy.lobDataDTO.offerings.[0].coverages.coverages[codeIdentifier='EH_NamedPerilIncCovC'].selected
property.requestedCoverages.electronicApparatusInAndOutOfVehicle,policy.lobDataDTO.offerings.[0].coverages.schedules[patternName='EH_NamedPerilIncCovCItem'].scheduleItems[@deserialization-class='edge.capabilities.policycommon.coverage.schedule.dto.patterns.SimpleScheduledItemDTO' && itemData.EH_NamedPerilIncCovC_ScheduleType.typeCodeValue='portableelectronicequipmentinvehicle'].itemData.EH_NamedPerilIncCovC_ItemLimit.bigDecimal
property.requestedCoverages.electronicApparatusInAndOutOfVehicle,policy.lobDataDTO.offerings.[0].coverages.schedules[patternName='EH_NamedPerilIncCovCItem'].scheduleItems[@deserialization-class='edge.capabilities.policycommon.coverage.schedule.dto.patterns.SimpleScheduledItemDTO' && itemData.EH_NamedPerilIncCovC_ScheduleType.typeCodeValue='portableelectronicequipmentinvehicle'].itemNumber
property.requestedCoverages.electronicApparatusInAndOutOfVehicle,policy.lobDataDTO.offerings.[0].coverages.coverages[codeIdentifier='EH_NamedPerilIncCovC'].selected
property.requestedCoverages.electronicApparatusInVehicle,policy.lobDataDTO.offerings.[0].coverages.schedules[patternName='EH_NamedPerilIncCovCItem'].scheduleItems[@deserialization-class='edge.capabilities.policycommon.coverage.schedule.dto.patterns.SimpleScheduledItemDTO' && itemData.EH_NamedPerilIncCovC_ScheduleType.typeCodeValue='portableelectronicequipmentinvehicle'].itemData.EH_NamedPerilIncCovC_ItemLimit.bigDecimal
property.requestedCoverages.electronicApparatusInVehicle,policy.lobDataDTO.offerings.[0].coverages.schedules[patternName='EH_NamedPerilIncCovCItem'].scheduleItems[@deserialization-class='edge.capabilities.policycommon.coverage.schedule.dto.patterns.SimpleScheduledItemDTO' && itemData.EH_NamedPerilIncCovC_ScheduleType.typeCodeValue='portableelectronicequipmentinvehicle'].itemNumber
property.requestedCoverages.electronicApparatusInVehicle,policy.lobDataDTO.offerings.[0].coverages.coverages[codeIdentifier='EH_NamedPerilIncCovC'].selected
property.requestedCoverages.unscheduledJewelryWatchesFurs,policy.lobDataDTO.offerings.[0].coverages.schedules[patternName='EH_NamedPerilIncCovCItem'].scheduleItems[@deserialization-class='edge.capabilities.policycommon.coverage.schedule.dto.patterns.SimpleScheduledItemDTO' && itemData.EH_NamedPerilIncCovC_ScheduleType.typeCodeValue='jewelrywatchesfurs'].itemData.EH_NamedPerilIncCovC_ItemLimit.bigDecimal
property.requestedCoverages.unscheduledJewelryWatchesFurs,policy.lobDataDTO.offerings.[0].coverages.schedules[patternName='EH_NamedPerilIncCovCItem'].scheduleItems[@deserialization-class='edge.capabilities.policycommon.coverage.schedule.dto.patterns.SimpleScheduledItemDTO' && itemData.EH_NamedPerilIncCovC_ScheduleType.typeCodeValue='jewelrywatchesfurs'].itemNumber
property.requestedCoverages.unscheduledJewelryWatchesFurs,policy.lobDataDTO.offerings.[0].coverages.coverages[codeIdentifier='EH_NamedPerilIncCovC'].selected
property.requestedCoverages.increasedCoverageCSpecialLiabilityLimitSecurities,policy.lobDataDTO.offerings.[0].coverages.schedules[patternName='EH_NamedPerilIncCovCItem'].scheduleItems[@deserialization-class='edge.capabilities.policycommon.coverage.schedule.dto.patterns.SimpleScheduledItemDTO' && itemData.EH_NamedPerilIncCovC_ScheduleType.typeCodeValue='securities'].itemData.EH_NamedPerilIncCovC_ItemLimit.bigDecimal
property.requestedCoverages.increasedCoverageCSpecialLiabilityLimitSecurities,policy.lobDataDTO.offerings.[0].coverages.schedules[patternName='EH_NamedPerilIncCovCItem'].scheduleItems[@deserialization-class='edge.capabilities.policycommon.coverage.schedule.dto.patterns.SimpleScheduledItemDTO' && itemData.EH_NamedPerilIncCovC_ScheduleType.typeCodeValue='securities'].itemNumber
property.requestedCoverages.increasedCoverageCSpecialLiabilityLimitSecurities,policy.lobDataDTO.offerings.[0].coverages.coverages[codeIdentifier='EH_NamedPerilIncCovC'].selected
property.requestedCoverages.increasedCoverageCSpecialLiabilityLimitMoney,policy.lobDataDTO.offerings.[0].coverages.schedules[patternName='EH_NamedPerilIncCovCItem'].scheduleItems[@deserialization-class='edge.capabilities.policycommon.coverage.schedule.dto.patterns.SimpleScheduledItemDTO' && itemData.EH_NamedPerilIncCovC_ScheduleType.typeCodeValue='money'].itemData.EH_NamedPerilIncCovC_ItemLimit.bigDecimal
property.requestedCoverages.increasedCoverageCSpecialLiabilityLimitMoney,policy.lobDataDTO.offerings.[0].coverages.schedules[patternName='EH_NamedPerilIncCovCItem'].scheduleItems[@deserialization-class='edge.capabilities.policycommon.coverage.schedule.dto.patterns.SimpleScheduledItemDTO' && itemData.EH_NamedPerilIncCovC_ScheduleType.typeCodeValue='money'].itemNumber
property.requestedCoverages.increasedCoverageCSpecialLiabilityLimitMoney,policy.lobDataDTO.offerings.[0].coverages.coverages[codeIdentifier='EH_NamedPerilIncCovC'].selected
property.requestedCoverages.increasedCoverageCSpecialLiabilityLimitFur,policy.lobDataDTO.offerings.[0].coverages.schedules[patternName='EH_NamedPerilIncCovCItem'].scheduleItems[@deserialization-class='edge.capabilities.policycommon.coverage.schedule.dto.patterns.SimpleScheduledItemDTO' && itemData.EH_NamedPerilIncCovC_ScheduleType.typeCodeValue='jewelrywatchesfurs'].itemData.EH_NamedPerilIncCovC_ItemLimit.bigDecimal
property.requestedCoverages.increasedCoverageCSpecialLiabilityLimitFur,policy.lobDataDTO.offerings.[0].coverages.schedules[patternName='EH_NamedPerilIncCovCItem'].scheduleItems[@deserialization-class='edge.capabilities.policycommon.coverage.schedule.dto.patterns.SimpleScheduledItemDTO' && itemData.EH_NamedPerilIncCovC_ScheduleType.typeCodeValue='jewelrywatchesfurs'].itemNumber
property.requestedCoverages.increasedCoverageCSpecialLiabilityLimitFur,policy.lobDataDTO.offerings.[0].coverages.coverages[codeIdentifier='EH_NamedPerilIncCovC'].selected
property.requestedCoverages.increasedCoverageCSpecialLiabilityLimitFur,policy.lobDataDTO.offerings.[0].coverages.schedules[patternName='EH_NamedPerilIncCovCItem'].scheduleItems[@deserialization-class='edge.capabilities.policycommon.coverage.schedule.dto.patterns.SimpleScheduledItemDTO' && itemData.EH_NamedPerilIncCovC_ScheduleType.typeCodeValue='jewelrywatchesfurs'].itemData.EH_NamedPerilIncCovC_ItemLimit.bigDecimal
property.requestedCoverages.increasedCoverageCSpecialLiabilityLimitFur,policy.lobDataDTO.offerings.[0].coverages.schedules[patternName='EH_NamedPerilIncCovCItem'].scheduleItems[@deserialization-class='edge.capabilities.policycommon.coverage.schedule.dto.patterns.SimpleScheduledItemDTO' && itemData.EH_NamedPerilIncCovC_ScheduleType.typeCodeValue='jewelrywatchesfurs'].itemNumber
property.requestedCoverages.increasedCoverageCSpecialLiabilityLimitFur,policy.lobDataDTO.offerings.[0].coverages.coverages[codeIdentifier='EH_NamedPerilIncCovC'].selected
property.requestedCoverages.increasedCoverageCSpecialLiabilityLimitGuns,policy.lobDataDTO.offerings.[0].coverages.schedules[patternName='EH_NamedPerilIncCovCItem'].scheduleItems[@deserialization-class='edge.capabilities.policycommon.coverage.schedule.dto.patterns.SimpleScheduledItemDTO' && itemData.EH_NamedPerilIncCovC_ScheduleType.typeCodeValue='firearms'].itemData.EH_NamedPerilIncCovC_ItemLimit.bigDecimal
property.requestedCoverages.increasedCoverageCSpecialLiabilityLimitGuns,policy.lobDataDTO.offerings.[0].coverages.schedules[patternName='EH_NamedPerilIncCovCItem'].scheduleItems[@deserialization-class='edge.capabilities.policycommon.coverage.schedule.dto.patterns.SimpleScheduledItemDTO' && itemData.EH_NamedPerilIncCovC_ScheduleType.typeCodeValue='firearms'].itemNumber
property.requestedCoverages.increasedCoverageCSpecialLiabilityLimitGuns,policy.lobDataDTO.offerings.[0].coverages.coverages[codeIdentifier='EH_NamedPerilIncCovC'].selected
