SAPI,OE_DTO
,policy.lobDataDTO.coverables.yourHome.doesYourHomeHaveFence
,policy.lobDataDTO.coverables.yourHome.valuation.contractorOverheadProfit
,policy.lobDataDTO.coverables.yourHome.valuation.costOfLaborMaterials
,policy.lobDataDTO.coverables.yourHome.valuation.costOfPermitsArchitects
,policy.lobDataDTO.coverables.yourHome.valuation.vendorID
,policy.lobDataDTO.coverables.yourHome.valuation.traceID
,policy.lobDataDTO.coverables.yourHome.acres
,policy.lobDataDTO.coverables.yourHome.homeBusiness
,policy.lobDataDTO.coverables.yourHome.hasCatInHome
,policy.lobDataDTO.coverables.yourHome.billingOption
,policy.lobDataDTO.coverables.yourHome.hasSnakeInHome
,policy.lobDataDTO.coverables.yourHome.hasFerretInHome
,policy.lobDataDTO.coverables.yourHome.paymentPlan
,policy.lobDataDTO.coverables.yourHome.yearPurchased
,policy.lobDataDTO.coverables.yourHome.hasDogLicensed
,policy.lobDataDTO.coverables.yourHome.numberOfFamilies
,policy.lobDataDTO.coverables.yourHome.isOwnerOccupiedIn60Days
,policy.lobDataDTO.coverables.yourHome.isThisNewHomePurchase
,policy.lobDataDTO.coverables.yourHome.hasNonDomesticCatInHome
,policy.lobDataDTO.coverables.yourHome.hasUnitRentalToOthers
,policy.lobDataDTO.coverables.yourHome.unitRentalToOthersWeeks
,policy.lobDataDTO.coverables.yourHome.additionalPremises
,policy.lobDataDTO.coverables.yourHome.ehlocation.publicID
,policy.lobDataDTO.coverables.yourHome.numberOfHouseHoldPeopleUnder25
address.[@primaryInsured.physicalRisk.address.ref].latitude,policy.lobDataDTO.coverables.yourHome.ehlocation.spatialPoint.latitude
address.[@primaryInsured.physicalRisk.address.ref].county,policy.lobDataDTO.coverables.yourHome.ehlocation.county
property.hasDogInHome,policy.lobDataDTO.coverables.yourHome.hasDogInHome
address.[@primaryInsured.physicalRisk.address.ref].longitude,policy.lobDataDTO.coverables.yourHome.ehlocation.spatialPoint.longitude
address.[@primaryInsured.physicalRisk.address.ref].zipcode,policy.lobDataDTO.coverables.yourHome.integrationId
address.[@primaryInsured.physicalRisk.address.ref].zipcode,policy.lobDataDTO.coverables.yourHome.ehlocation.postalCode
property.residentCount,policy.lobDataDTO.coverables.yourHome.totalNumberOfPeopleLiving
animal.hasBiteIncident,policy.lobDataDTO.coverables.yourHome.hasAnimalBitten
address.[@primaryInsured.physicalRisk.address.ref].line1,policy.lobDataDTO.coverables.yourHome.ehlocation.addressLine1
address.[@primaryInsured.physicalRisk.address.ref].line1,policy.lobDataDTO.coverables.yourHome.ehlocation.country
address.[@primaryInsured.physicalRisk.address.ref].line2,policy.lobDataDTO.coverables.yourHome.ehlocation.addressLine2
property.ownedSnowmobiles,policy.lobDataDTO.offerings.[0].coverages.coverages[codeIdentifier='EH_ScheduledSnowmobile'].selected
property.hasWatercraft,policy.lobDataDTO.offerings.[0].coverages.coverages[codeIdentifier='EH_ScheduledWatercraft'].selected
property.occupancyType,policy.lobDataDTO.coverables.yourHome.dwellingUsageType
property.occupancyType,policy.lobDataDTO.coverables.yourHome.dwellingUsageType
address.[@primaryInsured.physicalRisk.address.ref].city,policy.lobDataDTO.coverables.yourHome.ehlocation.city
property.marketValue,policy.lobDataDTO.coverables.yourHome.valuation.estimatedReplacementCostAmount
property.dwellUsage,policy.lobDataDTO.coverables.yourHome.dwellingUsageType
property.dwellUsage,policy.lobDataDTO.coverables.yourHome.dwellingUsageType
property.dwellUsage,policy.lobDataDTO.coverables.yourHome.dwellingUsageType
property.hasHighRiskDog,policy.lobDataDTO.coverables.yourHome.highRiskDogBreedInd
address.[@primaryInsured.physicalRisk.address.ref].state,policy.lobDataDTO.coverables.yourHome.ehlocation.state
property.lengthTimeOccupancyType,policy.lobDataDTO.coverables.yourHome.dwellingUsageType
address.[@primaryInsured.physicalRisk.address.ref].addressType,policy.lobDataDTO.coverables.yourHome.ehlocation.addressType
property.fireStationDistance,policy.lobDataDTO.coverables.yourHome.locationSafety[safetyType=DistanceToFireStation].locationSafetyDistance
property.requestedCoverages.dwelling,policy.lobDataDTO.coverables.yourHome.valuation.estimatedReplacementCostAmount
